UTENTI:
 
username: prova
password: Password-1
-----------------------------------
username: sara-95
password: Sarabella95-
-----------------------------------
username: luca.mirto
password: Sarabanda95-
-----------------------------------
username: giorgia98
password: Giorgia95-
-----------------------------------
username: lollo-shake
password: Lorenzo95-
-----------------------------------
